{
    "took": 8,
    "timed_out": false,
    "_shards": {
        "total": 5,
        "successful": 5,
        "skipped": 0,
        "failed": 0
    },
    "hits": {
        "total": 2,
        "max_score": 1.0,
        "hits": [
            {
                "_index": "twitter_mx",
                "_type": "tweet",
                "_id": "AWIvc48fBVQrQ5_a2eun",
                "_score": 1.0,
                "_source": {
                    "created_at": "Fri Mar 16 15:35:24 +0000 2018",
                    "id": 974670475187097600,
                    "id_str": "974670475187097600",
                    "text": "Friday! @ Quer\u00e9taro Arteaga, Mexico https://t.co/NXWXhcMsnv",
                    "source": "<a href=\"http://instagram.com\" rel=\"nofollow\">Instagram</a>",
                    "truncated": false,
                    "geo": {
                        "type": "Point",
                        "coordinates": [
                            20.73968808,
                            -99.94116115
                        ]
                    },
                    "coordinates": {
                        "type": "Point",
                        "coordinates": [
                            -99.94116115,
                            20.73968808
                        ]
                    },
                    "place": {
                        "id": "25904a4dfba77093",
                        "url": "https://api.twitter.com/1.1/geo/id/25904a4dfba77093.json",
                        "place_type": "city",
                        "name": "Ezequiel Montes",
                        "full_name": "Ezequiel Montes, Quer\u00e9taro Arteaga",
                        "country_code": "MX",
                        "country": "Mexico",
                        "bounding_box": {
                            "type": "Polygon",
                            "coordinates": [
                                [
                                    [
                                        -99.978204,
                                        20.539927
                                    ],
                                    [
                                        -99.978204,
                                        20.766526
                                    ],
                                    [
                                        -99.741798,
                                        20.766526
                                    ],
                                    [
                                        -99.741798,
                                        20.539927
                                    ]
                                ]
                            ]
                        },
                        "attributes": {}
                    },
                    "contributors": null,
                    "is_quote_status": false,
                    "quote_count": 0,
                    "reply_count": 0,
                    "retweet_count": 0,
                    "favorite_count": 0,
                    "entities": {
                        "hashtags": [],
                        "urls": [
                            {
                                "url": "https://t.co/NXWXhcMsnv",
                                "expanded_url": "https://www.instagram.com/p/BgY6q8Yhf3K/",
                                "display_url": "instagram.com/p/BgY6q8Yhf3K/",
                                "indices": [
                                    36,
                                    59
                                ]
                            }
                        ],
                        "user_mentions": [],
                        "symbols": []
                    },
                    "favorited": false,
                    "retweeted": false,
                    "possibly_sensitive": false,
                    "filter_level": "low",
                    "lang": "es",
                    "timestamp_ms": "1521214524443"
                }
            },
            {
                "_index": "twitter_mx",
                "_type": "tweet",
                "_id": "AWIvc6PSBVQrQ5_a2euo",
                "_score": 1.0,
                "_source": {
                    "created_at": "Fri Mar 16 15:35:30 +0000 2018",
                    "id": 974670499388313602,
                    "id_str": "974670499388313602",
                    "text": "First day #lamolecomiccon en Crowne Plaza Hotel de Mexico https://t.co/CKibl1CuNL",
                    "source": "<a href=\"http://instagram.com\" rel=\"nofollow\">Instagram</a>",
                    "truncated": false,
                    "in_reply_to_status_id": null,
                    "in_reply_to_status_id_str": null,
                    "in_reply_to_user_id": null,
                    "in_reply_to_user_id_str": null,
                    "in_reply_to_screen_name": null,
                    "user": {
                        "id": 189712840,
                        "id_str": "189712840",
                        "name": "Fernanda Gracida",
                        "screen_name": "Karishto",
                        "location": "Terwyn",
                        "url": null,
                        "description": "I will talk about anything, but I am more willing to listen always. Tell me your stories :D",
                        "translator_type": "none",
                        "protected": false,
                        "verified": false,
                        "followers_count": 194,
                        "friends_count": 527,
                        "listed_count": 4,
                        "favourites_count": 1490,
                        "statuses_count": 1711,
                        "created_at": "Sun Sep 12 01:11:12 +0000 2010",
                        "utc_offset": -21600,
                        "time_zone": "Mountain Time (US & Canada)",
                        "geo_enabled": true,
                        "lang": "es",
                        "contributors_enabled": false,
                        "is_translator": false,
                        "profile_background_color": "000000",
                        "profile_background_image_url": "http://abs.twimg.com/images/themes/theme9/bg.gif",
                        "profile_background_image_url_https": "https://abs.twimg.com/images/themes/theme9/bg.gif",
                        "profile_background_tile": false,
                        "profile_link_color": "7FDBB6",
                        "profile_sidebar_border_color": "000000",
                        "profile_sidebar_fill_color": "000000",
                        "profile_text_color": "000000",
                        "profile_use_background_image": false,
                        "profile_image_url": "http://pbs.twimg.com/profile_images/965587010542080000/IDiWpKTU_normal.jpg",
                        "profile_image_url_https": "https://pbs.twimg.com/profile_images/965587010542080000/IDiWpKTU_normal.jpg",
                        "profile_banner_url": "https://pbs.twimg.com/profile_banners/189712840/1358730306",
                        "default_profile": false,
                        "default_profile_image": false,
                        "following": null,
                        "follow_request_sent": null,
                        "notifications": null
                    },
                    "geo": {
                        "type": "Point",
                        "coordinates": [
                            19.39602169,
                            -99.17454961
                        ]
                    },
                    "coordinates": {
                        "type": "Point",
                        "coordinates": [
                            -99.17454961,
                            19.39602169
                        ]
                    },
                    "place": {
                        "id": "7d93122509633720",
                        "url": "https://api.twitter.com/1.1/geo/id/7d93122509633720.json",
                        "place_type": "city",
                        "name": "Benito Ju\u00e1rez",
                        "full_name": "Benito Ju\u00e1rez, Distrito Federal",
                        "country_code": "MX",
                        "country": "M\u00e9xico",
                        "bounding_box": {
                            "type": "Polygon",
                            "coordinates": [
                                [
                                    [
                                        -99.191996,
                                        19.357102
                                    ],
                                    [
                                        -99.191996,
                                        19.404124
                                    ],
                                    [
                                        -99.130965,
                                        19.404124
                                    ],
                                    [
                                        -99.130965,
                                        19.357102
                                    ]
                                ]
                            ]
                        },
                        "attributes": {}
                    },
                    "contributors": null,
                    "is_quote_status": false,
                    "quote_count": 0,
                    "reply_count": 0,
                    "retweet_count": 0,
                    "favorite_count": 0,
                    "entities": {
                        "hashtags": [
                            {
                                "text": "lamolecomiccon",
                                "indices": [
                                    10,
                                    25
                                ]
                            }
                        ],
                        "urls": [
                            {
                                "url": "https://t.co/CKibl1CuNL",
                                "expanded_url": "https://www.instagram.com/p/BgY6rt1Acl0/",
                                "display_url": "instagram.com/p/BgY6rt1Acl0/",
                                "indices": [
                                    58,
                                    81
                                ]
                            }
                        ],
                        "user_mentions": [],
                        "symbols": []
                    },
                    "favorited": false,
                    "retweeted": false,
                    "possibly_sensitive": false,
                    "filter_level": "low",
                    "lang": "en",
                    "timestamp_ms": "1521214530213"
                }
            }
        ]
    }
}
